-0.18629153, -0.02850629, 1.4483293
-0.21595994, -0.03504597, 1.3891706
-0.19245677, -0.021745693, 1.461339
-0.21633443, -0.034457456, 1.3876069
-0.21609767, -0.034275834, 1.3879527
-0.19191293, -0.02747051, 1.4294891
-0.18122597, -0.027518872, 1.4752767
-0.18212813, -0.02742226, 1.4741079
-0.20146692, -0.029540405, 1.4054551
-0.18028106, -0.029249148, 1.4690839
-0.13852599, -0.031039108, 1.5771018
-0.19775355, -0.020147728, 1.4458052
-0.18976666, -0.034149837, 1.3885503
-0.18100831, -0.029270491, 1.4656007
-0.19325992, -0.025258776, 1.4396938
-0.20013018, -0.022672538, 1.4229378
-0.21793096, -0.013596959, 1.2977617
-0.19054036, -0.025745774, 1.4495156
-0.16486233, -0.029404873, 1.5192001
-0.16528758, -0.029304646, 1.5185404
-0.19147752, -0.025238991, 1.4489892
-0.20167786, -0.023683921, 1.4040331
-0.16718557, -0.028922608, 1.5146924
-0.13947827, -0.043904897, 1.6059786
-0.20103513, -0.023305645, 1.4122454
-0.19081219, -0.025883742, 1.4455619
-0.19330212, -0.024784867, 1.4424744
-0.20413247, -0.023292482, 1.3916181
-0.20230147, -0.02294316, 1.4053026
-0.20026639, -0.023332071, 1.4156382
-0.19218628, -0.025735313, 1.4426942
-0.20377932, -0.022526851, 1.3986139
-0.1941811, -0.025404871, 1.4332602
-0.20085187, -0.023137065, 1.4121373
-0.2076678, -0.029807003, 1.3971459
-0.20691465, -0.022748234, 1.3746008
-0.20774877, -0.021445679, 1.37767
-0.1865021, -0.025634879, 1.4683031
-0.18989697, -0.026373882, 1.4487592
-0.19213898, -0.025932441, 1.4400023
-0.18466096, -0.031925719, 1.4317502
-0.1902478, -0.026327405, 1.4475043
-0.20753562, -0.02131441, 1.3765324
-0.1947457, -0.025463784, 1.4295933
-0.20178287, -0.022720166, 1.4100242
-0.18629958, -0.026993796, 1.4587448
-0.2108984, -0.020286856, 1.3563441
-0.20334402, -0.022203574, 1.4049314
-0.15607405, -0.03171147, 1.5331311
-0.20161876, -0.022530479, 1.414034
-0.21078114, -0.020165689, 1.3577484
-0.21101502, -0.020185601, 1.3589212
-0.19247264, -0.026260158, 1.4365863
-0.20000173, -0.022792784, 1.4201936
-0.20169839, -0.02241577, 1.4136214
-0.19037791, -0.026759444, 1.4417367
-0.20133993, -0.022458173, 1.4163694
-0.19289809, -0.02637301, 1.4338397
-0.20565957, -0.023657704, 1.376773
-0.1958776, -0.025756301, 1.4202068
-0.15695976, -0.031916797, 1.529047
-0.20163758, -0.022321975, 1.4141251
-0.1985902, -0.022915175, 1.4297278
-0.20940156, -0.015698675, 1.3892525
-0.1707458, -0.030114319, 1.4976022
-0.2017075, -0.022220599, 1.4157408
-0.18929222, -0.029977664, 1.422179
-0.18109357, -0.02567292, 1.4851949
-0.19803026, -0.022886021, 1.4313073
-0.1935738, -0.026441088, 1.4287169
-0.20064205, -0.028519025, 1.4054757
-0.20161785, -0.017797366, 1.4349385
-0.20283988, -0.017574122, 1.4273416
-0.20110248, -0.017989647, 1.4365151
-0.21476074, -0.018545153, 1.3297423
-0.20052892, -0.018174578, 1.4400845
-0.19793767, -0.025738625, 1.4113201
-0.21537609, -0.018329158, 1.32595
-0.18647429, -0.024640182, 1.4717025
-0.16232948, -0.028153962, 1.534725
-0.21294342, -0.015667297, 1.3602935
-0.13835655, -0.031014951, 1.5779287
-0.18475865, -0.028240375, 1.4557823
-0.2070228, -0.020481443, 1.3898717
-0.20704284, -0.020447195, 1.3909099
-0.21053399, -0.019385699, 1.3656682
-0.21861115, -0.016518492, 1.2909849
-0.20644614, -0.020386802, 1.3949585
-0.206799, -0.020276161, 1.3942841
-0.21005633, -0.019280607, 1.3727499
-0.20343244, -0.020749979, 1.4130989
-0.17591213, -0.025160497, 1.5051657
-0.21861064, -0.016065018, 1.2915653
-0.2185853, -0.016047241, 1.2929515
-0.20692304, -0.019750651, 1.3935322
-0.20324762, -0.020472674, 1.4181364
-0.19194247, -0.028559854, 1.4188704
-0.20830607, -0.017878633, 1.3927449
-0.17783506, -0.024424352, 1.5035607
-0.20863229, -0.017895848, 1.3929995
-0.1920567, -0.022217533, 1.4603105
-0.2038583, -0.020042179, 1.414188
-0.19874647, -0.019916357, 1.4405465
-0.19642669, -0.021292431, 1.4453034
-0.18995276, -0.02229685, 1.4677212
-0.19945197, -0.020672141, 1.4342346
-0.19521241, -0.020724626, 1.4537473
-0.19200109, -0.021933397, 1.4624165
-0.20646322, -0.01912979, 1.4014376
-0.19404498, -0.021057028, 1.4567471
-0.2054202, -0.019065972, 1.4097037
-0.20505641, -0.019205945, 1.4103607
-0.17652327, -0.024063872, 1.5104241
-0.19924808, -0.023010386, 1.4235708
-0.18269436, -0.02894322, 1.4615197
-0.20635746, -0.020485476, 1.3933448
-0.16370301, -0.029936902, 1.5194429
-0.20187059, -0.018534726, 1.4308448
-0.22059561, -0.018616818, 1.3488444
-0.20791526, -0.022585461, 1.3685352
-0.17666359, -0.031475112, 1.4664428
-0.19783856, -0.021648042, 1.4381938
-0.16327617, -0.029534066, 1.5229291
-0.18499649, -0.03076596, 1.4365082
-0.17593329, -0.024438919, 1.5102396
-0.14428347, -0.03478048, 1.5500643
-0.20050183, -0.023630312, 1.4116892
-0.17489167, -0.029400315, 1.4870465
-0.15632641, -0.031590696, 1.5322324
-0.20161359, -0.022310046, 1.4138905
-0.19311745, -0.023032295, 1.4531431
-0.19240846, -0.025887445, 1.4385192
-0.20404094, -0.025192594, 1.3805605
-0.20161515, -0.023599973, 1.4061522
-0.19949232, -0.023482019, 1.4184195
-0.20103493, -0.02313927, 1.4125005
-0.21053399, -0.03126663, 1.3913223
-0.21166362, -0.030891037, 1.389944
-0.20042779, -0.017605653, 1.4407696
-0.20147443, -0.02254479, 1.4142941
-0.21038324, -0.020369183, 1.3633853
-0.20023273, -0.022758422, 1.4198891
-0.20112106, -0.017989442, 1.4363123
-0.20053959, -0.01815084, 1.4400833
-0.20149213, -0.022411531, 1.4131336
-0.20107153, -0.022539083, 1.4164206
-0.21563409, -0.018416034, 1.3225801
-0.19269869, -0.023846781, 1.4518843
-0.21881129, -0.0165298, 1.291409
-0.1936731, -0.022856098, 1.4517943
-0.20494932, -0.020126481, 1.405836
-0.20513788, -0.019188499, 1.4099424
-0.20552444, -0.019041209, 1.4090787
-0.18498529, -0.031782471, 1.4310496
-0.1953169, -0.02071017, 1.452667
-0.18596047, -0.025356818, 1.4708898
-0.20913216, -0.017876541, 1.3881902
-0.18773375, -0.019149171, 1.4965508
-0.18440934, -0.031919573, 1.4311074
-0.19879554, -0.019915238, 1.4405077
-0.19991849, -0.019705411, 1.4378414
-0.21386062, -0.016624093, 1.3483815
-0.17828059, -0.030158151, 1.4689586
-0.20621262, -0.02460324, 1.3694264
-0.17322962, -0.024368148, 1.5191886
-0.20829393, -0.017880511, 1.392328
-0.17866068, -0.023658896, 1.5049697
-0.1994964, -0.019738784, 1.4387147
-0.16991912, -0.025067791, 1.5265307
-0.20470224, -0.019525466, 1.4118993
-0.21635388, -0.034430325, 1.3875042
-0.18935816, -0.022377316, 1.4705207
-0.19859608, -0.020867957, 1.4375634
-0.19703394, -0.021298941, 1.4440947
-0.2111762, -0.017050654, 1.3751167
-0.16312163, -0.026373779, 1.5386235
-0.17753655, -0.024465712, 1.5048829
-0.19227928, -0.022199623, 1.4600955
-0.20295054, -0.016786003, 1.4289927
-0.2004623, -0.023177968, 1.4150443
-0.20017932, -0.023651795, 1.4128356
-0.19349349, -0.026309846, 1.4300402
-0.21104102, -0.016930392, 1.3786386
-0.18582544, -0.025539475, 1.4726528
-0.19834636, -0.021520676, 1.4371303
-0.22067103, -0.014922765, 1.2583197
-0.20707725, -0.02007295, 1.3924644
-0.20934099, -0.019641683, 1.3752338
-0.1885121, -0.029675718, 1.4275115
-0.20165795, -0.022213237, 1.4151711
-0.19348232, -0.026117109, 1.4313252
-0.20673367, -0.020451132, 1.3902391
-0.20589671, -0.020706182, 1.3930728
-0.20820269, -0.020372834, 1.3806685
-0.19844839, -0.022911465, 1.4293985
-0.21495944, -0.018558713, 1.3295072
-0.2129776, -0.015671346, 1.3597242
-0.21345711, -0.019465497, 1.3390993
-0.2180039, -0.013600157, 1.2977241
-0.21353266, -0.015371131, 1.3549426
-0.16432625, -0.028171815, 1.5272487
-0.18434086, -0.030233834, 1.4445947
-0.1987991, -0.018448578, 1.4452475
-0.19810443, -0.023176046, 1.429629
-0.20308316, -0.017404523, 1.4283108
-0.20962992, -0.015693149, 1.3898646
-0.1931757, -0.027262835, 1.423896
-0.20144406, -0.017360399, 1.4349246
-0.20941846, -0.015620793, 1.3909128
-0.18663211, -0.025633283, 1.468318
-0.18120965, -0.029865516, 1.45992
-0.21721734, -0.01850863, 1.3032479
-0.18675022, -0.028492371, 1.445518
-0.21705024, -0.018705396, 1.3047706
-0.19591892, -0.020475782, 1.4514189
-0.19509074, -0.026074735, 1.4247812
-0.20294586, -0.022884041, 1.4014448
-0.19878712, -0.025618572, 1.4085362
-0.18719763, -0.027757822, 1.4493014
-0.1933223, -0.025249679, 1.4395355
-0.18523133, -0.028109442, 1.4573981
-0.20158735, -0.02367804, 1.4036528
-0.19101512, -0.025879694, 1.4453391
-0.20573567, -0.023632823, 1.3764486
-0.15570289, -0.031732775, 1.5328077
-0.15617192, -0.0313696, 1.534704
-0.16686563, -0.031532414, 1.5018363
-0.18088342, -0.029253474, 1.4648268
-0.18900709, -0.025712878, 1.4592123
-0.19906451, -0.021053636, 1.4342018
-0.20415086, -0.022403952, 1.3953116
-0.19563128, -0.021040754, 1.4504032
-0.15326369, -0.0310493, 1.5433863
-0.16719747, -0.028933337, 1.5144125
-0.19512469, -0.030010806, 1.4076668
-0.19790766, -0.022790574, 1.4332914
-0.20873916, -0.020916114, 1.3689945
-0.18202016, -0.022271262, 1.4983057
-0.21101363, -0.020291578, 1.3562343
-0.16185316, -0.028600179, 1.5322773
-0.19139704, -0.025250632, 1.4490215
-0.16722861, -0.027230119, 1.5226367
-0.19950807, -0.025379155, 1.4043795
-0.1856107, -0.030573277, 1.4351008
-0.13829708, -0.031026784, 1.5778443
-0.20375836, -0.020058583, 1.4146136
-0.21596377, -0.018166412, 1.3203728
-0.20143028, -0.022410238, 1.4133393
-0.20140885, -0.022570185, 1.4147321
-0.20539539, -0.019156095, 1.4096849
-0.19587985, -0.020671025, 1.4512237
-0.19963504, -0.023349246, 1.4180733
-0.21061192, -0.031255048, 1.3912679
-0.20208065, -0.022955943, 1.4056604
-0.20010766, -0.023541681, 1.4124992
-0.20167005, -0.023349535, 1.405906
-0.19814433, -0.025755284, 1.4108609
-0.20137236, -0.017937655, 1.4360462
-0.20071752, -0.028572096, 1.4059315
-0.19659813, -0.020869998, 1.4465618
-0.21012762, -0.02038688, 1.3634084
-0.21110058, -0.020215694, 1.3592738
-0.20086272, -0.023145895, 1.4125954
-0.21879093, -0.016529901, 1.2916137
-0.1924381, -0.027296966, 1.4273869
-0.20052128, -0.017578261, 1.4398369
-0.20517519, -0.020093601, 1.4062879
-0.19617237, -0.020470725, 1.4515651
-0.20072396, -0.0233129, 1.411684
-0.22052811, -0.014941167, 1.2581053
-0.19241364, -0.021784006, 1.4611866
-0.20411301, -0.022416582, 1.3958918
-0.20019166, -0.023654791, 1.4125832
-0.19919713, -0.019901779, 1.4394547
-0.19817573, -0.022881318, 1.4310404
-0.20312807, -0.020752173, 1.4145948
-0.19330809, -0.025246974, 1.4392917
-0.20190562, -0.02354693, 1.4045722
-0.20236233, -0.023577265, 1.4013366
-0.19181921, -0.025721338, 1.4422438
-0.21102674, -0.016895488, 1.3780316
-0.20978579, -0.019842865, 1.374714
-0.19667171, -0.022191225, 1.4432906
-0.21369545, -0.018793898, 1.3392366
-0.19958174, -0.020720245, 1.4351431
-0.2030111, -0.02226828, 1.4044923
-0.15578541, -0.031808399, 1.5323755
-0.2028525, -0.020479148, 1.4173794
-0.18145482, -0.030538866, 1.4557623
-0.21015069, -0.019292621, 1.3722972
-0.2195874, -0.015887143, 1.2769781
-0.20573491, -0.023629023, 1.3759727
-0.2045116, -0.026184471, 1.3799951
-0.19846988, -0.025627196, 1.408275
-0.20481876, -0.019753544, 1.408258
-0.21840726, -0.016267089, 1.2934276
-0.20005661, -0.022658363, 1.4223697
-0.20635341, -0.019420905, 1.4001698
-0.18571517, -0.028384531, 1.4522092
-0.20312637, -0.017532516, 1.4280887
-0.19804667, -0.023189956, 1.4300901
-0.20946166, -0.015709935, 1.3893516
-0.20635134, -0.020414023, 1.395491
-0.20551464, -0.021012498, 1.3982458
-0.1805885, -0.028983101, 1.4682897
-0.20061509, -0.023199424, 1.4153178
-0.18636952, -0.028497569, 1.4482816
-0.17594692, -0.024309121, 1.5116506
-0.19864577, -0.021542786, 1.4377702
-0.21724212, -0.018490156, 1.3028178
-0.19000229, -0.022265105, 1.4677943
-0.17927973, -0.029599592, 1.4698689
-0.18215206, -0.022292158, 1.4999539
-0.19915959, -0.018424269, 1.4458367
-0.20352389, -0.020717967, 1.4127455
-0.1508584, -0.029817577, 1.5540353
-0.20927116, -0.019658551, 1.3757771
-0.18218856, -0.029685661, 1.4536873
-0.20608279, -0.018869027, 1.40448
-0.2025553, -0.020317297, 1.4215803
-0.19796996, -0.022791846, 1.4330807
-0.16531962, -0.028427608, 1.5221997
-0.19213963, -0.026083272, 1.4379407
-0.19400765, -0.021792574, 1.4544271
-0.19939385, -0.021789124, 1.4302241
-0.15602933, -0.031675164, 1.5325948
-0.19374882, -0.026486032, 1.4296046
-0.20174153, -0.017339895, 1.4357955
-0.21489671, -0.034227118, 1.3904978
-0.21299596, -0.015673259, 1.3599772
-0.20218481, -0.020817615, 1.4218531
-0.17497483, -0.024067737, 1.5169264
-0.19872925, -0.020839684, 1.437302
-0.18430808, -0.029500611, 1.4513127
-0.19131462, -0.02525573, 1.4487014
-0.17175351, -0.031780507, 1.4823474
-0.20529772, -0.022557495, 1.3881249
-0.20709175, -0.019728636, 1.3934295
-0.18403503, -0.030235928, 1.4440613
-0.16305022, -0.026364218, 1.5381259
-0.19558416, -0.023764929, 1.4343262
-0.20307374, -0.016828125, 1.4297146
-0.19805722, -0.02120842, 1.440339
-0.15390523, -0.031431876, 1.5397253
-0.19900776, -0.019465869, 1.4416606
-0.19765888, -0.0236883, 1.429551
-0.18796894, -0.028221486, 1.4409018
-0.14990781, -0.030382197, 1.5543956
-0.21480639, -0.034228757, 1.39087
-0.21497615, -0.033287983, 1.3877447
-0.20543224, -0.033840843, 1.3851485
-0.20343521, -0.022545319, 1.398916
-0.20312205, -0.020714, 1.4150257
-0.19603409, -0.022233969, 1.4429667
-0.20665084, -0.019735131, 1.3981701
-0.21072522, -0.031266492, 1.3916538
-0.21000721, -0.019280059, 1.3724715
-0.20296316, -0.020464633, 1.4176164
-0.19235149, -0.023162836, 1.4564396
-0.20935383, -0.019869817, 1.374344
-0.19250038, -0.022157075, 1.4595764
-0.20390277, -0.020046946, 1.4150298
-0.20249735, -0.020333536, 1.4216844
-0.20481919, -0.019769963, 1.4088563
-0.21584187, -0.018367732, 1.32505
-0.21546523, -0.018439822, 1.3230896
-0.18939425, -0.022327276, 1.4701976
-0.20145187, -0.022577275, 1.4156754
-0.21028824, -0.020397728, 1.36382
-0.20445217, -0.019479688, 1.4121207
-0.2106352, -0.020353448, 1.3598491
-0.1858809, -0.025508113, 1.4723495
-0.20206185, -0.02267132, 1.4091057
-0.19964007, -0.023391012, 1.4182305
-0.20405275, -0.022414502, 1.3959943
-0.2008644, -0.023154497, 1.4122728
-0.20215383, -0.022944724, 1.4064296
-0.20060706, -0.023303581, 1.4120339
-0.20308472, -0.022858679, 1.4002457
-0.20957778, -0.017815504, 1.3881199
-0.19625369, -0.020426184, 1.450855
-0.2015743, -0.023325922, 1.4058353
-0.18950136, -0.025759814, 1.4566351
-0.21121454, -0.01703468, 1.3749946
-0.21067855, -0.017154057, 1.3779653
-0.19101985, -0.026328718, 1.4488857
-0.19283727, -0.026257997, 1.4361522
-0.18512411, -0.021352647, 1.496551
-0.18557674, -0.028357053, 1.4521028
-0.20125404, -0.017898925, 1.4364096
-0.20296365, -0.017448857, 1.4282317
-0.20040964, -0.017604815, 1.4401919
-0.20934913, -0.015687358, 1.3902787
-0.20171608, -0.017349403, 1.4360865
-0.20203817, -0.020823119, 1.4220253
-0.20360518, -0.020728102, 1.4128003
-0.22059637, -0.01494545, 1.2584087
-0.20935924, -0.019649617, 1.3761333
-0.21701731, -0.013374863, 1.3107558
-0.20251182, -0.020444373, 1.4216708
-0.20702627, -0.020447794, 1.3904001
-0.17824909, -0.030196659, 1.4699388
-0.20640762, -0.019426841, 1.4006631
-0.19899723, -0.020815374, 1.4370843
-0.20898184, -0.016348138, 1.3923807
-0.16435105, -0.028365234, 1.5277369
-0.21303737, -0.019449389, 1.3434345
-0.18287097, -0.028856818, 1.4602201
-0.1832983, -0.028667649, 1.4598377
-0.20239452, -0.022269947, 1.4112902
-0.21337608, -0.015451108, 1.3549585
-0.21823169, -0.015972082, 1.2922724
-0.20332976, -0.022241464, 1.4050694
-0.18665907, -0.025712572, 1.4675504
-0.17630675, -0.023963224, 1.5129386
-0.19365741, -0.024628785, 1.4418739
-0.20533976, -0.022505287, 1.3891928
-0.19325918, -0.026045611, 1.4312428
-0.15587942, -0.031811088, 1.5326554
-0.19290678, -0.025224032, 1.4410012
-0.17614934, -0.023811955, 1.5128348
-0.1957783, -0.024947826, 1.4276022
-0.19126578, -0.025868876, 1.4447203
-0.18773423, -0.029863035, 1.4293923
-0.20935564, -0.016658088, 1.3865105
-0.1733568, -0.024402035, 1.5190858
-0.19879486, -0.023391768, 1.421899
-0.18916352, -0.029963568, 1.4227564
-0.17045379, -0.024265857, 1.5291506
-0.2035463, -0.015773278, 1.4292493
-0.18411113, -0.029477239, 1.4503602
-0.1905406, -0.023673326, 1.461843
-0.19898354, -0.023747679, 1.4193087
-0.19652149, -0.021339251, 1.4445696
-0.17465235, -0.024064442, 1.5158865
-0.16358846, -0.033588514, 1.5001596
-0.17002398, -0.027453743, 1.5121247
-0.15079112, -0.029839326, 1.553836
-0.20431668, -0.025240272, 1.381511
-0.14703411, -0.030883878, 1.5588046
-0.20426297, -0.017516699, 1.420509
-0.19153735, -0.028622735, 1.4199556
-0.1502685, -0.030377259, 1.5541817
-0.19297816, -0.022956958, 1.4532149
-0.21767595, -0.032042183, 1.3697548
-0.21458524, -0.032860953, 1.3878698
-0.18668899, -0.019118313, 1.5008705
-0.21985425, -0.015890338, 1.278075
-0.20109145, -0.017226342, 1.4375205
-0.20182282, -0.017305383, 1.4359815
-0.20961998, -0.019633139, 1.3684454
-0.20088598, -0.017624281, 1.4404342
-0.21686386, -0.013367138, 1.3104779
-0.20169319, -0.01787978, 1.4368045
-0.21044302, -0.019691795, 1.3711686
-0.19889754, -0.018355599, 1.4448503
-0.20030764, -0.018150909, 1.4408305
-0.2043149, -0.017549518, 1.4199888
-0.20979071, -0.019905649, 1.3746929
-0.20230098, -0.018088782, 1.4297996
-0.21767361, -0.013612151, 1.2973206
-0.20945309, -0.016663976, 1.3867638
-0.19662862, -0.022232307, 1.4438825
-0.21386488, -0.018774884, 1.3395684
-0.20564015, -0.018097332, 1.4114505
-0.21601032, -0.018246477, 1.3243823
-0.21130316, -0.016988609, 1.37473
-0.21068789, -0.017260872, 1.3782837
-0.20352215, -0.020725476, 1.4151884
-0.18203783, -0.022748861, 1.4986359
-0.22092623, -0.014956528, 1.2591206
-0.2021808, -0.020862682, 1.421401
-0.19616394, -0.020668561, 1.4525565
-0.19348462, -0.027150266, 1.4234949
-0.1793634, -0.029532725, 1.4676971
-0.19005644, -0.027631259, 1.4383562
-0.1902678, -0.02745166, 1.4353448
-0.17811435, -0.029481305, 1.4741777
-0.19822367, -0.021580096, 1.4368806
-0.19837552, -0.022898093, 1.4302629
-0.19785435, -0.025820114, 1.4108125
-0.18701695, -0.027787294, 1.4506252
-0.20171295, -0.022224708, 1.4153091
-0.17500579, -0.024072677, 1.51569
-0.18642122, -0.027571492, 1.454385
-0.19273029, -0.026321858, 1.4358088
-0.15632246, -0.031813063, 1.5312228
-0.19368699, -0.026052753, 1.4325353
-0.17656772, -0.023809297, 1.5116339
-0.20531833, -0.019113719, 1.4087633
-0.17948736, -0.023571439, 1.5047239
-0.19574879, -0.024971865, 1.4283071
-0.19428742, -0.0252595, 1.4343916
-0.20463265, -0.019528143, 1.4122905
-0.17614329, -0.024292564, 1.5112053
-0.1923504, -0.021871353, 1.4616497
-0.20181186, -0.023487834, 1.4033362
-0.199091, -0.020777902, 1.4358029
-0.19880885, -0.022985347, 1.4262822
-0.20035772, -0.02277006, 1.4192564
-0.19147564, -0.025256962, 1.447955
-0.20442216, -0.022604235, 1.3932751
-0.20354712, -0.022863701, 1.3997921
-0.19319236, -0.024859935, 1.4410146
-0.20623639, -0.019394537, 1.3999738
-0.1936193, -0.024642209, 1.4414903
-0.20209698, -0.022947945, 1.4069571
-0.19966951, -0.02339503, 1.4173316
-0.2024024, -0.020323208, 1.4207171
-0.21760291, -0.018591575, 1.3028442
-0.21365616, -0.019424489, 1.3392296
-0.20328692, -0.020072892, 1.414107
-0.21135497, -0.020275472, 1.3604642
-0.20364974, -0.022300461, 1.3989712
-0.20216097, -0.022667207, 1.4080913
-0.20300357, -0.02047376, 1.4180253
-0.17762905, -0.024422813, 1.5037609
-0.19640449, -0.025713021, 1.4190799
-0.1915075, -0.02586529, 1.4456618
-0.16949673, -0.029305778, 1.5053612
-0.18553275, -0.029060451, 1.445504
-0.18093513, -0.025664996, 1.4857309
-0.21151024, -0.032955028, 1.3895608
-0.19091137, -0.017265812, 1.4978628
-0.20316213, -0.015934385, 1.4298811
-0.20136802, -0.017211556, 1.4381835
-0.2004246, -0.017644642, 1.439769
-0.20097959, -0.017848436, 1.4351089
-0.20000499, -0.028634181, 1.4069979
-0.19930059, -0.01827262, 1.4450651
-0.20082779, -0.028082676, 1.4052913
-0.20414324, -0.017549641, 1.4200608
-0.18089107, -0.030681921, 1.4579597
-0.20299144, -0.026192239, 1.3875341
-0.17910747, -0.030187959, 1.4668056
-0.17952034, -0.029606709, 1.4687972
-0.21095705, -0.01680591, 1.3769782
-0.18360822, -0.028631812, 1.458559
-0.17874771, -0.029347593, 1.4732678
-0.1852535, -0.027918652, 1.4551172
-0.18633628, -0.027554234, 1.453669
-0.18523154, -0.027677219, 1.457794
-0.1560602, -0.031559277, 1.5334508
-0.19020385, -0.026438097, 1.4485478
-0.19216153, -0.025962505, 1.4388931
-0.21011382, -0.017585188, 1.3835312
-0.19320035, -0.025763741, 1.4373581
-0.19570787, -0.02069832, 1.4527619
-0.17922558, -0.023595551, 1.5045415
-0.19367787, -0.025261771, 1.435334
-0.20228229, -0.023470692, 1.4027221
-0.2053269, -0.019108584, 1.4078964
-0.17625189, -0.024251616, 1.509244
-0.19215317, -0.021863939, 1.4621274
-0.18952705, -0.022348316, 1.4699603
-0.2020034, -0.022884632, 1.4064273
-0.20019726, -0.023342611, 1.4174253
-0.2037956, -0.022427652, 1.3980243
-0.19412431, -0.024255486, 1.4438266
-0.15825556, -0.025862966, 1.4178115
-0.18606628, -0.025473071, 1.4723655
-0.20237391, -0.02031843, 1.4202518
-0.19247647, -0.023873363, 1.452738
-0.20496599, -0.019830521, 1.4086993
-0.20667753, -0.019791439, 1.3975427
-0.21608779, -0.018116325, 1.3187279
-0.21461885, -0.018536203, 1.3282113
-0.19796053, -0.021669274, 1.4377016
-0.20276055, -0.020880766, 1.4217405
-0.22073147, -0.014963354, 1.2591618
-0.21861358, -0.01616011, 1.2929106
-0.1979759, -0.02183059, 1.4376794
-0.19219418, -0.023265883, 1.4565531
-0.19612046, -0.022253675, 1.443679
-0.21841171, -0.016583923, 1.2926754
-0.18560731, -0.025473252, 1.4710896
-0.20129143, -0.017852429, 1.4348351
-0.19991963, -0.018217096, 1.4412447
-0.1846863, -0.021268625, 1.4966373
-0.20983793, -0.017624019, 1.3830333
-0.19593816, -0.020666895, 1.4524903
-0.17677255, -0.023899155, 1.5120885
-0.19880034, -0.02820882, 1.4098232
-0.17925197, -0.023586223, 1.503394
-0.20267637, -0.026172474, 1.3865607
-0.2031424, -0.020340778, 1.4204392
-0.20382501, -0.020172236, 1.4164754
-0.2051913, -0.019816861, 1.4070833
-0.20548239, -0.019951867, 1.4057853
-0.20624152, -0.019851984, 1.395887
-0.19803555, -0.021749279, 1.4369872
-0.21861914, -0.016146502, 1.2919904
-0.22075701, -0.015048774, 1.2593906
-0.20423606, -0.020701421, 1.4121158
-0.18393725, -0.028631285, 1.4592088
-0.15653586, -0.031800982, 1.5310142
-0.16245574, -0.028337231, 1.5333245
-0.20124687, -0.022673773, 1.4165332
-0.19394459, -0.025290832, 1.4352713
-0.19517572, -0.025053402, 1.4334127
-0.2023339, -0.023405891, 1.4020334
-0.19905081, -0.023563165, 1.4234359
-0.21733207, -0.018527854, 1.3016493
-0.20363836, -0.022456853, 1.398896
-0.1772806, -0.022700351, 1.5160234
-0.21491781, -0.018985931, 1.3280821
-0.17356254, -0.023515295, 1.5234001
-0.18200174, -0.022396637, 1.5001183
-0.209139, -0.017874328, 1.3868722
-0.21561147, -0.018086139, 1.3174261
-0.20367326, -0.015897678, 1.4298105
-0.21127793, -0.026451301, 1.3683914
-0.18576795, -0.028310055, 1.4515333
-0.19506457, -0.021627534, 1.452976
-0.194391, -0.021562343, 1.449137
-0.20157562, -0.017299527, 1.4368116
-0.17873825, -0.030202491, 1.4662055
-0.18743354, -0.029807951, 1.4279164
-0.17571381, -0.025470043, 1.5025051
-0.21239154, -0.032972232, 1.3847958
-0.21483293, -0.012834739, 1.33198
-0.21685325, -0.013391477, 1.3110658
-0.19999568, -0.018214026, 1.4438579
-0.20165631, -0.017892195, 1.4361368
-0.1846296, -0.021278786, 1.498332
-0.18422848, -0.021842938, 1.495811
-0.2098607, -0.01760364, 1.3830287
-0.21786386, -0.014752514, 1.2895473
-0.17635904, -0.02393215, 1.5122677
-0.17914334, -0.023564827, 1.5037893
-0.2027213, -0.020281686, 1.4197607
-0.20529461, -0.019869499, 1.4074826
-0.19842012, -0.027908869, 1.4101663
-0.20344952, -0.020722207, 1.4166281
-0.20445719, -0.025583135, 1.3780006
-0.203293, -0.025984794, 1.3912835
-0.16244388, -0.028313629, 1.5315052
-0.1842649, -0.028664362, 1.4578611
-0.21552087, -0.01853852, 1.3258002
-0.1983896, -0.025963256, 1.4123629
-0.20079522, -0.0226613, 1.4173585
-0.17835912, -0.029359194, 1.4727238
-0.19564176, -0.0258999, 1.4209419
-0.18582414, -0.027668351, 1.4558688
-0.19273572, -0.026361698, 1.4366689
-0.194906, -0.025353381, 1.431535
-0.21473308, -0.018968664, 1.3267988
-0.19231424, -0.025388256, 1.4458964
-0.18926771, -0.025845906, 1.4579096
-0.19192514, -0.025226148, 1.4474332
-0.20295027, -0.022409752, 1.3974266
-0.19412205, -0.024215505, 1.4422981
-0.18124025, -0.028958987, 1.4662527
-0.21776184, -0.017619945, 1.2954619
-0.19013289, -0.027439576, 1.4357163
-0.21844941, -0.01700525, 1.2944376
-0.18571103, -0.028724618, 1.4499574
-0.21160582, -0.025954727, 1.3643461
-0.17549418, -0.024934268, 1.5111139
-0.17560953, -0.025497274, 1.5055765
-0.18014124, -0.030808473, 1.4589821
-0.19801222, -0.021808349, 1.4372813
-0.20276454, -0.022138635, 1.4082571
-0.17335956, -0.023574159, 1.522815
-0.17392027, -0.022985244, 1.5273807
-0.18700917, -0.020267569, 1.489362
-0.18799952, -0.029819027, 1.4293354

